[
    {
        "name":"TRUE (Contract)",
        "job":"Senior PHP Developer",
        "period":"July 2019 to Apr 2020",
        "jobdesc":[
            "Develop Web application development on detailed design specifications for internal.",
            "Tested front-end code in multiple browsers to ensure cross-browser compatability.",
            "Monitoring and maintenance of the systems."
        ]
    },{
        "name":"AIS (Contract)",
        "job":"Senior PHP Developer",
        "period":"Auguest 2017 to March 2019",
        "jobdesc":[
            "Created and implemented a custom module for Magento.",
            "Develop and maintenance web application.",
            "Work closely with a team which may include partner company as well as with the technical team.",
            "Fixed front end bugs (HTML, CSS, Javascript errors (JQUERY)",
            "Develop Web application using Magento."
        ]  
    },{
        "name":"Thinksmart Co., Ltd.",
        "job":"Senior Web Programmer",
        "period":"January 2014 to October 2016",
        "jobdesc":[
            "Worked in both Agile and Waterfall settings.",
            "Develop Web application development on detailed design specifications.",
            "Tested front-end code in multiple browsers to ensure cross-browser compatability.",
            "Monitoring and maintenance of the systems."
        ]  
    },{
        "name":"BizPotential Co., Ltd.",
        "job":"Senior Web Programmer",
        "period":"April 2008 to December 2013",
        "jobdesc":[
            "Develop Web application development on detailed design specifications.",
            "Responsible for receiving user requirement.",
            "Develop and maintenance web application."
        ] 
    }
]